Calculate invertebrate mass time series — calc_inv_mass_ts • fishFoodMWD
…
calc_inv_mass_ts(df, ndays)

    Arguments

    df
An sf dataset, such as the provided dataframe fields, which includes an attribute area_ac containing the field area in acres. Also works with an ordinary data.frame or tibble.

ndays
The total number of days over which to conduct the mass calculation. A sequence of days from 1 to ndays is fed into the day parameter of the calc_inv_mass function.

    Examples

# calculate the invertebrate mass time series
fields |> calc_inv_mass_ts(14)
#> # A tibble: 141,484 × 3
#>      day unique_id total_prod_g
#>    <int> <chr>            <dbl>
#>  1     1 1103539      0.00108  
#>  2     1 1102849      0.00108  
#>  3     1 1103353      0.0000485
#>  4     1 1103425      0.0000616
#>  5     1 1103546      0.00225  
#>  6     1 1103560      0.000692 
#>  7     1 1103561      0.00160  
#>  8     1 1103563      0.00114  
#>  9     1 1103564      0.00343  
#> 10     1 1103566      0.00258  
#> # ℹ 141,474 more rows
…
