Calculate invertebrate mass time series — ff_calc_inv_mass_ts • fishFoodMWD
…
ff_calc_inv_mass_ts(df, ndays)

    Arguments

    df
An sf dataset, such as the provided dataframe ff_fields, which includes an attribute area_ac containing the field area in acres. Also works with an ordinary data.frame or tibble.

ndays
The total number of days over which to conduct the mass calculation. A sequence of days from 1 to ndays is fed into the day parameter of the ff_calc_inv_mass function.

    Examples

# calculate the invertebrate mass time series
ff_fields |> ff_calc_inv_mass_ts(14)
#> # A tibble: 134,792 × 3
#>      day unique_id total_prod_kg
#>    <int> <chr>             <dbl>
#>  1     1 1103539          17.6  
#>  2     1 1102849          17.7  
#>  3     1 1103353           0.794
#>  4     1 1103425           1.01 
#>  5     1 1103546          36.8  
#>  6     1 1103560          11.3  
#>  7     1 1103561          26.1  
#>  8     1 1103563          18.7  
#>  9     1 1103564          56.2  
#> 10     1 1103566          42.2  
#> # ℹ 134,782 more rows
…
